<?xml version="1.0" encoding="UTF-8" standalone="no"?>
<?xml-stylesheet href="../../styles/forest.css" type="text/css"?>
<!DOCTYPE svg PUBLIC "-//W3C//DTD SVG 1.1//EN"
 "http://www.w3.org/Graphics/SVG/1.1/DTD/svg11.dtd">
<!-- Generated by graphviz version 2.40.1 (20161225.0304)
 -->
<!-- Title: %3 Pages: 1 -->
<svg width="492pt" height="44pt"
 viewBox="0.00 0.00 492.06 44.00" xmlns="http://www.w3.org/2000/svg" xmlns:xlink="http://www.w3.org/1999/xlink">
<g id="graph0" class="graph" transform="scale(1 1) rotate(0) translate(4 40)">
<title>%3</title>
<polygon fill="#ffffff" stroke="transparent" points="-4,4 -4,-40 488.0634,-40 488.0634,4 -4,4"/>
<!-- A -->
<g id="node1" class="node">
<title>A</title>
<ellipse fill="none" stroke="#000000" cx="70.8437" cy="-18" rx="70.6878" ry="18"/>
<text text-anchor="middle" x="70.8437" y="-14.3" font-family="Helvetica,sans-Serif" font-size="14.00" fill="#000000">Added hello file</text>
</g>
<!-- B -->
<g id="node2" class="node">
<title>B</title>
<ellipse fill="none" stroke="#000000" cx="219.9337" cy="-18" rx="42.4939" ry="18"/>
<text text-anchor="middle" x="219.9337" y="-14.3" font-family="Helvetica,sans-Serif" font-size="14.00" fill="#000000">Say bye</text>
</g>
<!-- A&#45;&gt;B -->
<g id="edge1" class="edge">
<title>A&#45;&gt;B</title>
<path fill="none" stroke="#000000" d="M141.8955,-18C150.4384,-18 159.0427,-18 167.2581,-18"/>
<polygon fill="#000000" stroke="#000000" points="167.4225,-21.5001 177.4225,-18 167.4224,-14.5001 167.4225,-21.5001"/>
</g>
<!-- C -->
<g id="node3" class="node HEAD">
<title>C</title>
<ellipse fill="none" stroke="#000000" cx="391.1217" cy="-18" rx="92.8835" ry="18"/>
<text text-anchor="middle" x="391.1217" y="-14.3" font-family="Helvetica,sans-Serif" font-size="14.00" fill="#000000">Not needed anymore</text>
</g>
<!-- B&#45;&gt;C -->
<g id="edge2" class="edge">
<title>B&#45;&gt;C</title>
<path fill="none" stroke="#000000" d="M262.2498,-18C270.2349,-18 278.9019,-18 287.8379,-18"/>
<polygon fill="#000000" stroke="#000000" points="288.0193,-21.5001 298.0192,-18 288.0192,-14.5001 288.0193,-21.5001"/>
</g>
</g>
</svg>
