<?xml version="1.0" encoding="UTF-8" standalone="no"?>
<?xml-stylesheet href="../../styles/forest.css" type="text/css"?>
<!DOCTYPE svg PUBLIC "-//W3C//DTD SVG 1.1//EN"
 "http://www.w3.org/Graphics/SVG/1.1/DTD/svg11.dtd">
<!-- Generated by graphviz version 2.40.1 (20161225.0304)
 -->
<!-- Title: %3 Pages: 1 -->
<svg width="1046pt" height="99pt"
 viewBox="0.00 0.00 1046.33 99.00" xmlns="http://www.w3.org/2000/svg" xmlns:xlink="http://www.w3.org/1999/xlink">
<g id="graph0" class="graph" transform="scale(1 1) rotate(0) translate(4 95)">
<title>%3</title>
<polygon fill="#ffffff" stroke="transparent" points="-4,4 -4,-95 1042.3299,-95 1042.3299,4 -4,4"/>
<g id="clust1" class="cluster">
<title>cluster_master</title>
<polygon fill="none" stroke="#000000" points="8,-8 8,-83 1030.3299,-83 1030.3299,-8 8,-8"/>
<text text-anchor="middle" x="519.1649" y="-67.8" font-family="Times,serif" font-size="14.00" fill="#000000">master</text>
</g>
<!-- 1 -->
<g id="node1" class="node">
<title>1</title>
<ellipse fill="none" stroke="#000000" cx="103.0923" cy="-34" rx="87.1846" ry="18"/>
<text text-anchor="middle" x="103.0923" y="-30.3" font-family="Helvetica,sans-Serif" font-size="14.00" fill="#000000">Empty shopping list</text>
</g>
<!-- 2 -->
<g id="node2" class="node">
<title>2</title>
<ellipse fill="none" stroke="#000000" cx="280.1298" cy="-34" rx="53.8905" ry="18"/>
<text text-anchor="middle" x="280.1298" y="-30.3" font-family="Helvetica,sans-Serif" font-size="14.00" fill="#000000">Buy Coffee</text>
</g>
<!-- 1&#45;&gt;2 -->
<g id="edge1" class="edge">
<title>1&#45;&gt;2</title>
<path fill="none" stroke="#000000" d="M190.3144,-34C199.0015,-34 207.7052,-34 216.0908,-34"/>
<polygon fill="#000000" stroke="#000000" points="216.1392,-37.5001 226.1392,-34 216.1392,-30.5001 216.1392,-37.5001"/>
</g>
<!-- 3 -->
<g id="node3" class="node">
<title>3</title>
<ellipse fill="none" stroke="#000000" cx="420.1205" cy="-34" rx="50.0912" ry="18"/>
<text text-anchor="middle" x="420.1205" y="-30.3" font-family="Helvetica,sans-Serif" font-size="14.00" fill="#000000">Buy donut</text>
</g>
<!-- 2&#45;&gt;3 -->
<g id="edge2" class="edge">
<title>2&#45;&gt;3</title>
<path fill="none" stroke="#000000" d="M334.2538,-34C342.5682,-34 351.1979,-34 359.6395,-34"/>
<polygon fill="#000000" stroke="#000000" points="359.8094,-37.5001 369.8093,-34 359.8093,-30.5001 359.8094,-37.5001"/>
</g>
<!-- 4 -->
<g id="node4" class="node">
<title>4</title>
<ellipse fill="none" stroke="#000000" cx="550.3622" cy="-34" rx="44.393" ry="18"/>
<text text-anchor="middle" x="550.3622" y="-30.3" font-family="Helvetica,sans-Serif" font-size="14.00" fill="#000000">Buy milk</text>
</g>
<!-- 3&#45;&gt;4 -->
<g id="edge3" class="edge">
<title>3&#45;&gt;4</title>
<path fill="none" stroke="#000000" d="M470.4753,-34C478.8214,-34 487.509,-34 495.9497,-34"/>
<polygon fill="#000000" stroke="#000000" points="496.0837,-37.5001 506.0837,-34 496.0837,-30.5001 496.0837,-37.5001"/>
</g>
<!-- 5 -->
<g id="node5" class="node">
<title>5</title>
<ellipse fill="none" stroke="#000000" cx="680.6038" cy="-34" rx="50.0912" ry="18"/>
<text text-anchor="middle" x="680.6038" y="-30.3" font-family="Helvetica,sans-Serif" font-size="14.00" fill="#000000">Buy sugar</text>
</g>
<!-- 4&#45;&gt;5 -->
<g id="edge4" class="edge">
<title>4&#45;&gt;5</title>
<path fill="none" stroke="#000000" d="M594.8197,-34C603.0823,-34 611.8401,-34 620.4799,-34"/>
<polygon fill="#000000" stroke="#000000" points="620.5313,-37.5001 630.5313,-34 620.5313,-30.5001 620.5313,-37.5001"/>
</g>
<!-- 6 -->
<g id="node6" class="node">
<title>6</title>
<ellipse fill="none" stroke="#000000" cx="830.3437" cy="-34" rx="63.8893" ry="18"/>
<text text-anchor="middle" x="830.3437" y="-30.3" font-family="Helvetica,sans-Serif" font-size="14.00" fill="#000000">Buy bandsaw</text>
</g>
<!-- 5&#45;&gt;6 -->
<g id="edge5" class="edge">
<title>5&#45;&gt;6</title>
<path fill="none" stroke="#000000" d="M730.8816,-34C739.1256,-34 747.8172,-34 756.4906,-34"/>
<polygon fill="#000000" stroke="#000000" points="756.6361,-37.5001 766.6361,-34 756.6361,-30.5001 756.6361,-37.5001"/>
</g>
<!-- 7 -->
<g id="node7" class="node HEAD">
<title>7</title>
<ellipse fill="none" stroke="#000000" cx="976.184" cy="-34" rx="46.2923" ry="18"/>
<text text-anchor="middle" x="976.184" y="-30.3" font-family="Helvetica,sans-Serif" font-size="14.00" fill="#000000">Buy anvil</text>
</g>
<!-- 6&#45;&gt;7 -->
<g id="edge6" class="edge">
<title>6&#45;&gt;7</title>
<path fill="none" stroke="#000000" d="M894.3114,-34C902.7062,-34 911.2618,-34 919.5239,-34"/>
<polygon fill="#000000" stroke="#000000" points="919.7981,-37.5001 929.7981,-34 919.7981,-30.5001 919.7981,-37.5001"/>
</g>
</g>
</svg>
